{"status": "ok", "total_hits": 2863, "page": 1, "total_pages": 2863, "page_size": 1, "articles": [{"title": "With patent granted, Calgary scientist wants to see more STEM opportunities for Black youth", "author": "Jason Herring", "published_date": "2023-02-14 00:16:11", "published_date_precision": "full", "link": "https://calgaryherald.com/news/local-news/patent-granted-calgary-scientist-stem-opportunities-black-youth", "clean_url": "calgaryherald.com", "excerpt": "This advertisement has not loaded yet, but your article continues below. 'If Alberta continues to open its doors to immigrants from around the world, I hope some of this magic can continue to happen'\u2026", "summary": "This advertisement has not loaded yet, but your article continues below. \n \n \n \n \n \n \n \n \n \n \n \n \n 'If Alberta continues to open its doors to immigrants from around the world, I hope some of this magic can continue to happen' \n \n \n \n \nJason Herring\n \n \n \n \nPublished Feb 13, 2023\n \u00a0\u2022\u00a0 \n2 minute read\n \n \n \n Join the conversation \n \n \n \n \n \n \n \n \n \n \n \n \n \n \nCalgary scientist Charles Odame-Ankrah recently obtained a U.S. patent for a photolytic converter which detects and breaks down nitrogen dioxide in the air.", "rights": "calgaryherald.com", "rank": 4037, "topic": "news", "country": "CA", "language": "en", "authors": "Jason Herring", "media": "https://smartcdn.gprod.postmedia.digital/calgaryherald/wp-content/uploads/2023/02/CAL-021323-gyb-4-copy.jpg", "is_opinion": false, "twitter_account": "@calgaryherald", "_score": 7.101347, "_id": "4a7d7b3ab0657f2358758b7145d50923"}], "user_input": {"q": "global warming", "search_in": ["title_summary_en"], "lang": ["en"], "not_lang": null, "countries": null, "not_countries": null, "from": "2023-02-07 00:00:00", "to": null, "ranked_only": "True", "from_rank": null, "to_rank": 10000, "sort_by": "date", "page": 1, "size": 1, "sources": null, "not_sources": null, "topic": "", "published_date_precision": null}}